[
	{
		"id"		: 1,
		"price"		: 3,
		"name" 		: "16 oz Coke",
		"image" 	: "images/coke.png",
		"color"		: "#fff"
	},
	{
		"id"		: 2,
		"price"		: 8,
		"name" 		: "32 oz Mountain Dew",
		"image" 	: "images/mountain_dew.png",
		"color"		: "#fff"
	},
	{
		"id"		: 3,
		"price"		: 8,
		"name" 		: "32 oz Mountain Dew",
		"image" 	: "images/mountain_dew.png",
		"color"		: "#fff"
	},
	{
		"id"		: 4,
		"price"		: 8,
		"name" 		: "32 oz Mountain Dew",
		"image" 	: "images/mountain_dew.png",
		"color"		: "#fff"
	},
	{
		"id"		: 5,
		"price"		: 8,
		"name" 		: "32 oz Mountain Dew",
		"image" 	: "images/mountain_dew.png",
		"color"		: "#fff"
	},
	{
		"id"		: 6,
		"price"		: 8,
		"name" 		: "32 oz Mountain Dew",
		"image" 	: "images/mountain_dew.png",
		"color"		: "#fff"
	}
]
